braidIndex package • braidIndex
…
Apply () to multiple rivers/reaches

result=braidIndex(Infos,rel_path="../data-raw/")
#> Warning in .f(rivdata = .l[[1L]][[i]], area = .l[[2L]][[i]], points_space
#> = .l[[3L]][[i]], : The cross-sections with ID 232 contain only one measure.
result
#> # A tibble: 24 × 12
#>    River Reach  Year   Area Points_space File   Nb_mean_meas XS_onlyone variable
#>    <chr> <chr>  <fct> <dbl>        <dbl> <chr>         <dbl>      <dbl> <chr>   
#>  1 Drac  Chabo… 2018    253            1 ../da…        109.4     0.4310 BRI_mean
#>  2 Drac  Chabo… 2018    253            1 ../da…        109.4     0.4310 BRI_SD  
#>  3 Drac  Chabo… 2018    253            1 ../da…        109.4     0.4310 BRI_min 
#>  4 Drac  Chabo… 2018    253            1 ../da…        109.4     0.4310 BRI_max 
#>  5 Drac  Chabo… 2018    253            1 ../da…        109.4     0.4310 W_mean  
#>  6 Drac  Chabo… 2018    253            1 ../da…        109.4     0.4310 W_SD    
#>  7 Drac  Chabo… 2018    253            1 ../da…        109.4     0.4310 W_min   
#>  8 Drac  Chabo… 2018    253            1 ../da…        109.4     0.4310 W_max   
#>  9 Drac  Chabo… 2018    253            1 ../da…        109.4     0.4310 WAC_mean
#> 10 Drac  Chabo… 2018    253            1 ../da…        109.4     0.4310 WAC_SD  
#> # … with 14 more rows, and 3 more variables: type <chr>, stat <chr>,
#> #   value <dbl>
…
